{
  "project_info": {
    "project_number": "869212054768",
    "firebase_url": "https://skrolly-app.firebaseio.com",
    "project_id": "skrolly-app",
    "storage_bucket": "skrolly-app.appspot.com"
  },
  "client": [
    {
      "client_info": {
        "mobilesdk_app_id": "1:869212054768:android:ece0fa6306717565",
        "android_client_info": {
          "package_name": "com.skosc.skrolly"
        }
      },
      "oauth_client": [
        {
          "client_id": "869212054768-2vg75rkibmmpqje1h32jutobeuitat5j.apps.googleusercontent.com",
          "client_type": 3
        }
      ],
      "api_key": [
        {
          "current_key": "AIzaSyD2DCfdwtkNgq8Dd3p70WxsgTTpVkdW57E"
        }
      ],
      "services": {
        "appinvite_service": {
          "other_platform_oauth_client": [
            {
              "client_id": "869212054768-2vg75rkibmmpqje1h32jutobeuitat5j.apps.googleusercontent.com",
              "client_type": 3
            }
          ]
        }
      }
    }
  ],
  "configuration_version": "1"
}